module sso

go 1.22.1

require (
	github.com/fatih/color v1.17.0
	github.com/go-ozzo/ozzo-validation v3.6.0+incompatible
	github.com/golang-jwt/jwt/v5 v5.2.1
	github.com/golang-migrate/migrate/v4 v4.17.1
	github.com/grpc-ecosystem/go-grpc-middleware/v2 v2.1.0
	github.com/ilyakaznacheev/cleanenv v1.5.0
	github.com/jackc/pgx/v5 v5.6.0
	github.com/joho/godotenv v1.5.1
	github.com/redis/go-redis/v9 v9.5.3
	gitlab.com/nahichevanski/proto-sso v0.0.9
	golang.org/x/crypto v0.24.0
	google.golang.org/grpc v1.61.1
)

require (
	github.com/BurntSushi/toml v1.2.1 // indirect
	github.com/asaskevich/govalidator v0.0.0-20230301143203-a9d515a09cc2 // indirect
	github.com/cespare/xxhash/v2 v2.2.0 // indirect
	github.com/dgryski/go-rendezvous v0.0.0-20200823014737-9f7001d12a5f // indirect
	github.com/golang/protobuf v1.5.3 // indirect
	github.com/hashicorp/errwrap v1.1.0 // indirect
	github.com/hashicorp/go-multierror v1.1.1 // indirect
	github.com/jackc/pgpassfile v1.0.0 // indirect
	github.com/jackc/pgservicefile v0.0.0-20221227161230-091c0ba34f0a // indirect
	github.com/jackc/puddle/v2 v2.2.1 // indirect
	github.com/kr/text v0.2.0 // indirect
	github.com/lib/pq v1.10.9 // indirect
	github.com/mattn/go-colorable v0.1.13 // indirect
	github.com/mattn/go-isatty v0.0.20 // indirect
	github.com/rogpeppe/go-internal v1.12.0 // indirect
	github.com/stretchr/testify v1.9.0 // indirect
	go.uber.org/atomic v1.7.0 // indirect
	golang.org/x/net v0.21.0 // indirect
	golang.org/x/sync v0.7.0 // indirect
	golang.org/x/sys v0.21.0 // indirect
	golang.org/x/text v0.16.0 // indirect
	google.golang.org/genproto/googleapis/rpc v0.0.0-20240213162025-012b6fc9bca9 // indirect
	google.golang.org/protobuf v1.33.0 // indirect
	gopkg.in/yaml.v3 v3.0.1 // indirect
	olympos.io/encoding/edn v0.0.0-20201019073823-d3554ca0b0a3 // indirect
)
